%YAML 1.1
%TAG !u! tag:unity3d.com,2011:
--- !u!114 &11400000
MonoBehaviour:
  m_ObjectHideFlags: 0
  m_CorrespondingSourceObject: {fileID: 0}
  m_PrefabInternal: {fileID: 0}
  m_GameObject: {fileID: 0}
  m_Enabled: 1
  m_EditorHideFlags: 0
  m_Script: {fileID: 11500000, guid: 5fcf374f12aed49bdb259c161c921a26, type: 3}
  m_Name: AngelArcangel
  m_EditorClassIdentifier: 
  genere: 1
  sprite: {fileID: 21300000, guid: 59c1aef1f0e614f4494b2cea646c7969, type: 3}
  level: 6
  magic: 1
  afinity: 55
  weakness: 64
  strongest: 128
  name: Arcangel
  description: Arcangel comes from the heavens
