%YAML 1.1
%TAG !u! tag:unity3d.com,2011:
--- !u!114 &11400000
MonoBehaviour:
  m_ObjectHideFlags: 0
  m_CorrespondingSourceObject: {fileID: 0}
  m_PrefabInternal: {fileID: 0}
  m_GameObject: {fileID: 0}
  m_Enabled: 1
  m_EditorHideFlags: 0
  m_Script: {fileID: 11500000, guid: 5fcf374f12aed49bdb259c161c921a26, type: 3}
  m_Name: AtlanteKing
  m_EditorClassIdentifier: 
  genere: 0
  sprite: {fileID: 21300000, guid: 901bb3e79e1b54a98abc13f74bfd8e86, type: 3}
  level: 4
  magic: 4
  afinity: 3
  weakness: 8
  strongest: 116
  name: Atlante King
  description: 'Atlante''s King '
