%YAML 1.1
%TAG !u! tag:unity3d.com,2011:
--- !u!114 &11400000
MonoBehaviour:
  m_ObjectHideFlags: 0
  m_CorrespondingSourceObject: {fileID: 0}
  m_PrefabInternal: {fileID: 0}
  m_GameObject: {fileID: 0}
  m_Enabled: 1
  m_EditorHideFlags: 0
  m_Script: {fileID: 11500000, guid: 5fcf374f12aed49bdb259c161c921a26, type: 3}
  m_Name: DemonLord
  m_EditorClassIdentifier: 
  genere: 0
  sprite: {fileID: 21300000, guid: a0c0861ab592f484c867a91a3b80a2da, type: 3}
  level: 5
  magic: 128
  afinity: 200
  weakness: 1
  strongest: 62
  name: Demon Lord
  description: Lord of Demons
