%YAML 1.1
%TAG !u! tag:unity3d.com,2011:
--- !u!114 &11400000
MonoBehaviour:
  m_ObjectHideFlags: 0
  m_CorrespondingSourceObject: {fileID: 0}
  m_PrefabInternal: {fileID: 0}
  m_GameObject: {fileID: 0}
  m_Enabled: 1
  m_EditorHideFlags: 0
  m_Script: {fileID: 11500000, guid: 5fcf374f12aed49bdb259c161c921a26, type: 3}
  m_Name: DemonMinion
  m_EditorClassIdentifier: 
  genere: 0
  sprite: {fileID: 21300000, guid: 4b82a0b9f1a394354b4b39ef45f25bab, type: 3}
  level: 1
  magic: 128
  afinity: 128
  weakness: 1
  strongest: 0
  name: Demon Minion
  description: Demon Minion
