%YAML 1.1
%TAG !u! tag:unity3d.com,2011:
--- !u!114 &11400000
MonoBehaviour:
  m_ObjectHideFlags: 0
  m_CorrespondingSourceObject: {fileID: 0}
  m_PrefabInternal: {fileID: 0}
  m_GameObject: {fileID: 0}
  m_Enabled: 1
  m_EditorHideFlags: 0
  m_Script: {fileID: 11500000, guid: 5fcf374f12aed49bdb259c161c921a26, type: 3}
  m_Name: DwarfShaman
  m_EditorClassIdentifier: 
  genere: 0
  sprite: {fileID: 21300000, guid: 75ddd2ca7acbc4d50b6301687cce063d, type: 3}
  level: 1
  magic: 16
  afinity: 36
  weakness: 32
  strongest: 0
  name: Dwarf Shaman
  description: Dwarf Shaman
