%YAML 1.1
%TAG !u! tag:unity3d.com,2011:
--- !u!114 &11400000
MonoBehaviour:
  m_ObjectHideFlags: 0
  m_CorrespondingSourceObject: {fileID: 0}
  m_PrefabInternal: {fileID: 0}
  m_GameObject: {fileID: 0}
  m_Enabled: 1
  m_EditorHideFlags: 0
  m_Script: {fileID: 11500000, guid: 5fcf374f12aed49bdb259c161c921a26, type: 3}
  m_Name: HumanKnight
  m_EditorClassIdentifier: 
  genere: 0
  sprite: {fileID: 21300000, guid: 46f9cad2e355a4d76aca9d51d5239f78, type: 3}
  level: 3
  magic: 32
  afinity: 16
  weakness: 128
  strongest: 74
  name: Human Knight
  description: Human Knight are strongest warriors
