%YAML 1.1
%TAG !u! tag:unity3d.com,2011:
--- !u!114 &11400000
MonoBehaviour:
  m_ObjectHideFlags: 0
  m_CorrespondingSourceObject: {fileID: 0}
  m_PrefabInternal: {fileID: 0}
  m_GameObject: {fileID: 0}
  m_Enabled: 1
  m_EditorHideFlags: 0
  m_Script: {fileID: 11500000, guid: 171102e4c9efb4ffc8bd1721d6d7ffd9, type: 3}
  m_Name: PlayerHuman
  m_EditorClassIdentifier: 
  playerPrefab: {fileID: 1343266090554790, guid: 36e3ead44144b486b9fa960a713cd548,
    type: 2}
  playerManager: {fileID: 0}
  level: 1
  life: 100
  race: {fileID: 11400000, guid: 031e1f46e387e4d00992c78618e6ffe9, type: 2}
  type: 0
