%YAML 1.1
%TAG !u! tag:unity3d.com,2011:
--- !u!114 &11400000
MonoBehaviour:
  m_ObjectHideFlags: 0
  m_CorrespondingSourceObject: {fileID: 0}
  m_PrefabInternal: {fileID: 0}
  m_GameObject: {fileID: 0}
  m_Enabled: 1
  m_EditorHideFlags: 0
  m_Script: {fileID: 11500000, guid: fd4f1b6ae399a44c4a99325ff24d1fcb, type: 3}
  m_Name: MusicData
  m_EditorClassIdentifier: 
  audios:
  - {fileID: 8300000, guid: 41f9eef401afba64297706bac5d1ea95, type: 3}
  - {fileID: 8300000, guid: 21bd65dade6f6824ba8d83c050400f33, type: 3}
  - {fileID: 8300000, guid: 006331fd90698ad49a8c67e9e2e8b2c4, type: 3}
  - {fileID: 8300000, guid: e9473876c3476834b873b4718609d523, type: 3}
  - {fileID: 8300000, guid: 983260d4ffcfad94dac744eaeb047716, type: 3}
  - {fileID: 8300000, guid: e4dbb2a63bdf9754b9096ad8c6b03e6c, type: 3}
  - {fileID: 8300000, guid: 19bd2a4c0bd934b87bb255baf932e4e8, type: 3}
  - {fileID: 8300000, guid: d407060f636744ca39ec2e61820bede7, type: 3}
