%YAML 1.1
%TAG !u! tag:unity3d.com,2011:
--- !u!114 &11400000
MonoBehaviour:
  m_ObjectHideFlags: 0
  m_CorrespondingSourceObject: {fileID: 0}
  m_PrefabInternal: {fileID: 0}
  m_GameObject: {fileID: 0}
  m_Enabled: 1
  m_EditorHideFlags: 0
  m_Script: {fileID: 11500000, guid: 5fcf374f12aed49bdb259c161c921a26, type: 3}
  m_Name: RaceElf
  m_EditorClassIdentifier: 
  genere: 0
  sprite: {fileID: 21300000, guid: 7e92c5e8f10af496e87e33fe93e8afb3, type: 3}
  level: 1
  magic: 2
  afinity: 1
  weakness: 4
  strongest: 64
  name: Elf
  description: 'Elf: Los Elf son fuertes contra magia morada, debiles contra magia
    gris y aliados de a magia azul'
