%YAML 1.1
%TAG !u! tag:unity3d.com,2011:
--- !u!114 &11400000
MonoBehaviour:
  m_ObjectHideFlags: 0
  m_CorrespondingSourceObject: {fileID: 0}
  m_PrefabInternal: {fileID: 0}
  m_GameObject: {fileID: 0}
  m_Enabled: 1
  m_EditorHideFlags: 0
  m_Script: {fileID: 11500000, guid: 5fcf374f12aed49bdb259c161c921a26, type: 3}
  m_Name: RaceGoblin
  m_EditorClassIdentifier: 
  genere: 0
  sprite: {fileID: 21300000, guid: 6b9c404956f384f8bbdcc7e853e2de6e, type: 3}
  level: 1
  magic: 8
  afinity: 128
  weakness: 16
  strongest: 4
  name: Goblin
  description: 'Goblin: Los Goblins son fuertes contra magia verde, debiles contra
    magia roja y aliados de a magia morada'
